^C:\USERS\ROG\SOURCE\REPOS\PROJECT4BALANCEDPARANTHESES\DEBUG\NODE.OBJ|C:\USERS\ROG\SOURCE\REPOS\PROJECT4BALANCEDPARANTHESES\DEBUG\PROJECT4BALANCEDPARANTHESES.OBJ|C:\USERS\ROG\SOURCE\REPOS\PROJECT4BALANCEDPARANTHESES\DEBUG\QUEUE.OBJ|C:\USERS\ROG\SOURCE\REPOS\PROJECT4BALANCEDPARANTHESES\DEBUG\STACK.OBJ
C:\USERS\ROG\SOURCE\REPOS\PROJECT4BALANCEDPARANTHESES\DEBUG\PROJECT4BALANCEDPARANTHESES.EXE
C:\USERS\ROG\SOURCE\REPOS\PROJECT4BALANCEDPARANTHESES\DEBUG\PROJECT4BALANCEDPARANTHESES.ILK
C:\USERS\ROG\SOURCE\REPOS\PROJECT4BALANCEDPARANTHESES\DEBUG\PROJECT4BALANCEDPARANTHESES.PDB
